…
1. (a) What's the minimum life expectancy for each continent and each year? (b) Add the corresponding country to the tibble, too. (c) Arrange by min life expectancy.


```r
gapminder %>% 
  group_by(continent, year) %>%
  summarize(min_life = min(lifeExp), country = country[lifeExp == min_life]) %>% 
  # do not want the min life exp for each country --> need to use some base R 
  #switch around the country variable, and min life stuff, not gonna work 
  arrange(min_life) 
```

```
## # A tibble: 60 x 4
## # Groups:   continent [5]
##    continent  year min_life country     
##    <fct>     <int>    <dbl> <fct>       
##  1 Africa     1992     23.6 Rwanda      
##  2 Asia       1952     28.8 Afghanistan 
##  3 Africa     1952     30   Gambia      
##  4 Asia       1957     30.3 Afghanistan 
##  5 Asia       1977     31.2 Cambodia    
##  6 Africa     1957     31.6 Sierra Leone
##  7 Asia       1962     32.0 Afghanistan 
##  8 Africa     1962     32.8 Sierra Leone
##  9 Asia       1967     34.0 Afghanistan 
## 10 Africa     1967     34.1 Sierra Leone
## # ... with 50 more rows
```
…
